…
This will download all relevant subtitles and return a data frame with
some basic metadata about them.

The next step is to actually import these subtitles in a format that is
easy to parse in R. You can download and import them in a single go
with:

``` r
yt_get(
  playlist = "https://www.youtube.com/playlist?list=PLbyvawxScNbuSi7sJaJbHNyyx3iYJeW3P",
  subtitles = TRUE
) |>
  yt_read_vtt()
#> # A tibble: 58,092 × 5
#>    yt_id       sub_lang     line_id text                              start_time
#>    <chr>       <chr>          <int> <chr>                             <chr>     
#>  1 Sn9Uj6vW4-Y Language: en       1 uh I'm Winston Chang I'm a uh so… 00:00:08.…
#>  2 Sn9Uj6vW4-Y Language: en       2 engineer at posit and um earlier… 00:00:11.…
#>  3 Sn9Uj6vW4-Y Language: en       3 year I did some work on a packag… 00:00:13.…
#>  4 Sn9Uj6vW4-Y Language: en       4 chat stream which you can use to… 00:00:15.…
#>  5 Sn9Uj6vW4-Y Language: en       5 build AI chat                     00:00:17.…
#>  6 Sn9Uj6vW4-Y Language: en       6 applications uh with shiny for P… 00:00:20.…
#>  7 Sn9Uj6vW4-Y Language: en       7 and it just sort of looks like t… 00:00:22.…
#>  8 Sn9Uj6vW4-Y Language: en       8 if you can't read this it's fine… 00:00:23.…
#>  9 Sn9Uj6vW4-Y Language: en       9 you know it's just basically a c… 00:00:24.…
#> 10 Sn9Uj6vW4-Y Language: en      10 interface you ask it a question … 00:00:26.…
#> # ℹ 58,082 more rows
```
…
``` r
positconf2023_df <- yt_get(
  playlist = "https://www.youtube.com/playlist?list=PL9HYL-VRX0oRFZslRGHwHuwea7SvAATHp",
  subtitles = TRUE
) |>
  yt_read_vtt()

community_df <- yt_filter(
  pattern = "community",
  subtitles_df = positconf2023_df
)
community_df
#> # A tibble: 195 × 6
#>    yt_id       sub_lang     line_id text                        start_time link 
#>    <chr>       <chr>          <int> <chr>                       <chr>      <chr>
#>  1 -0pPBAiJaYk Language: en     306 team it's created a commun… 00:11:15.… http…
#>  2 18vfcf46ozE Language: en     322 American Community survey … 00:12:39.… http…
#>  3 18vfcf46ozE Language: en     396 is on community             00:15:22.… http…
#>  4 18vfcf46ozE Language: en     407 community so as our users … 00:15:44.… http…
#>  5 18vfcf46ozE Language: en     411 community and so me now as… 00:15:53.… http…
#>  6 18vfcf46ozE Language: en     414 appreciation for that comm… 00:16:00.… http…
#>  7 DVQJ39_9L0U Language: en     123 community and any problems… 00:05:26.… http…
#>  8 DVQJ39_9L0U Language: en     160 Community with individuals… 00:07:07.… http…
#>  9 DVQJ39_9L0U Language: en     317 and Community Building the… 00:14:19.… http…
#> 10 DVQJ39_9L0U Language: en     327 community the second organ… 00:14:46.… http…
#> # ℹ 185 more rows
```
…
